E:\LeicaClinicImages_01092015\Additional CellMapPlus Test Images\000012a_re_20150128,TRITC-Rhoadmine Selection000012a_re_20150128.tif,12a_v623_rgn.csv,12a_v1_CTC.csv
E:\LeicaClinicImages_01092015\Additional CellMapPlus Test Images\000012b_re_20150128,TRITC-Rhoadmine Selection000012b_re_20150128.tif,12b_v623_rgn.csv,12b_v1_CTC.csv
E:\LeicaClinicImages_01092015\Additional CellMapPlus Test Images\000012c_re_20150128,TRITC-Rhoadmine Selection000012c_re_20150128.tif,12c_v623_rgn.csv,12c_v1_CTC.csv
E:\LeicaClinicImages_01092015\Additional CellMapPlus Test Images\000018a_re_20150129,TRITC-Rhoadmine Selection000018a_re_20150129.tif,18a_v623_rgn.csv,18a_v1_CTC.csv
E:\LeicaClinicImages_01092015\Additional CellMapPlus Test Images\000018b_re_20150129,TRITC-Rhoadmine Selection000018b_re_20150129.tif,18b_v623_rgn.csv,18b_v1_CTC.csv
E:\LeicaClinicImages_01092015\Additional CellMapPlus Test Images\000018c_re_20150129,TRITC-Rhoadmine Selection000018c_re_20150129.tif,18c_v623_rgn.csv,18c_v1_CTC.csv
E:\LeicaClinicImages_01092015\Additional CellMapPlus Test Images\000023a_re_20150129,TRITC-Rhoadmine Selection_000023a_re_20150129.tif,23a_v623_rgn.csv,23a_v1_CTC.csv
E:\LeicaClinicImages_01092015\Additional CellMapPlus Test Images\000023b_re_20150129,TRITC-Rhoadmine Selection_000023b_re_20150129.tif,23b_v623_rgn.csv,23b_v1_CTC.csv
E:\LeicaClinicImages_01092015\Additional CellMapPlus Test Images\000023c_re_20150129,TRITC-Rhoadmine Selection_000023c_re_20150129.tif,23c_v623_rgn.csv,23c_v1_CTC.csv
E:\LeicaClinicImages_01092015\Additional CellMapPlus Test Images\000029a_re_20150130,TRITC-Rhoadmine Selection000029a_re_20150130.tif,29a_v623_rgn.csv,29a_v1_CTC.csv
E:\LeicaClinicImages_01092015\Additional CellMapPlus Test Images\000029b_re_20150130,TRITC-Rhoadmine Selection000029b_re_20150130.tif,29b_v623_rgn.csv,29b_v1_CTC.csv
E:\LeicaClinicImages_01092015\Additional CellMapPlus Test Images\000029c_re_20150130,TRITC-Rhoadmine Selection_000029c_re_20150130.tif,29c_v623_rgn.csv,29c_v1_CTC.csv
E:\CellMaxSampleData_10162014\XiaomingLaptop_Backup\03212015\00046a,TRITC-Rhoadmine Selection_000046a_re_20150130.tif,46a_v622_rgn.csv,46a_v1_CTC.csv
E:\CellMaxSampleData_10162014\XiaomingLaptop_Backup\03212015\00046b,TRITC-Rhoadmine Selection000046b_re_20150130.tif,46b_v622_rgn.csv,46b_v1_CTC.csv
E:\CellMaxSampleData_10162014\XiaomingLaptop_Backup\03212015\00046c,TRITC-Rhoadmine Selection000046c_re_20150130.tif,46c_v622_rgn.csv,46c_v1_CTC.csv
E:\LeicaClinicImages_01092015\Additional CellMapPlus Test Images\000048a_re_20150130,TRITC-Rhoadmine Selection_000048a_re_20150130.tif,48a_v623_rgn.csv,48a_v1_CTC.csv
E:\LeicaClinicImages_01092015\Additional CellMapPlus Test Images\000048b_re_20150130,TRITC-Rhoadmine Selection_000048b_re_20150130.tif,48b_v623_rgn.csv,48b_v1_CTC.csv
E:\LeicaClinicImages_01092015\Additional CellMapPlus Test Images\000048c_re_20150130,TRITC-Rhoadmine Selection_000048c_re_20150130.tif,48c_v623_rgn.csv,48c_v1_CTC.csv
E:\CellMaxSampleData_10162014\XiaomingLaptop_Backup\03212015\00066a,TRITC-Rhoadmine Selection_000066a_re_20150130.tif,66a_v622_rgn.csv,66a_v1_CTC.csv
E:\CellMaxSampleData_10162014\XiaomingLaptop_Backup\03212015\00066b,TRITC-Rhoadmine Selection_000066b_re_20150130.tif,66b_v622_rgn.csv,66b_v1_CTC.csv
E:\CellMaxSampleData_10162014\XiaomingLaptop_Backup\03212015\00066c,TRITC-Rhoadmine Selection_000066c_re_20150130.tif,66c_v622_rgn.csv,66c_v1_CTC.csv
E:\CellMaxSampleData_10162014\XiaomingLaptop_Backup\03212015\00067a,TRITC-Rhoadmine Selection_000067a_re_20150131.tif,67a_v622_rgn.csv,67a_v1_CTC.csv
E:\CellMaxSampleData_10162014\XiaomingLaptop_Backup\03212015\00067b,TRITC-Rhoadmine Selection_000067b_re_20150131.tif,67b_v622_rgn.csv,67b_v1_CTC.csv
E:\CellMaxSampleData_10162014\XiaomingLaptop_Backup\03212015\00067c,TRITC-Rhoadmine Selection_000067c_re_20150131.tif,67c_v622_rgn.csv,67c_v1_CTC.csv
E:\LeicaClinicImages_01092015\Additional CellMapPlus Test Images\000073a_re_20150122,TRITC-Rhoadmine Selection000073a_re_20150122.tif,73a_v623_rgn.csv,73a_v1_CTC.csv
E:\LeicaClinicImages_01092015\Additional CellMapPlus Test Images\000073b_re_20150126,TRITC-Rhoadmine Selection000073b_re_20150126.tif,73b_v623_rgn.csv,73b_v1_CTC.csv
E:\LeicaClinicImages_01092015\Additional CellMapPlus Test Images\000073c_re_20150126,TRITC-Rhoadmine Selection_000073c_re_20150126.tif,73c_v623_rgn.csv,73c_v1_CTC.csv
E:\LeicaClinicImages_01092015\Additional CellMapPlus Test Images\000074a_re_20150131,TRITC-Rhoadmine Selection000074a_re_20150131.tif,74a_v623_rgn.csv,74a_v1_CTC.csv
E:\LeicaClinicImages_01092015\Additional CellMapPlus Test Images\000074b_re_20150131,TRITC-Rhoadmine Selection000074b_re_20150131.tif,74b_v623_rgn.csv,74b_v1_CTC.csv
E:\LeicaClinicImages_01092015\Additional CellMapPlus Test Images\000074c_re_20150131,TRITC-Rhoadmine Selection_000074c_re_20150131.tif,74c_v623_rgn.csv,74c_v1_CTC.csv
E:\LeicaClinicImages_01092015\Additional CellMapPlus Test Images\000075a_re_20150131,TRITC-Rhoadmine Selection_000075a_re_20150131.tif,75a_v623_rgn.csv,75a_v1_CTC.csv
E:\LeicaClinicImages_01092015\Additional CellMapPlus Test Images\000075b_re_20150131,TRITC-Rhoadmine Selection_000075b_re_20150131.tif,75b_v623_rgn.csv,75b_v1_CTC.csv
E:\CellMaxSampleData_10162014\XiaomingLaptop_Backup\03212015\00079a,TRITC-Rhoadmine Selection_000079a_re_20150131.tif,79a_v622_rgn.csv,79a_v1_CTC.csv
E:\CellMaxSampleData_10162014\XiaomingLaptop_Backup\03212015\00079b,TRITC-Rhoadmine Selection_000079b_re_20150131.tif,79b_v622_rgn.csv,79b_v1_CTC.csv
E:\CellMaxSampleData_10162014\XiaomingLaptop_Backup\03212015\00079c,TRITC-Rhoadmine Selection_000079c_re_20150131.tif,79c_v622_rgn.csv,79c_v1_CTC.csv
E:\CellMaxSampleData_10162014\XiaomingLaptop_Backup\03212015\00080a,TRITC-Rhoadmine Selection_000080a_re_20150131.tif,80a_v622_rgn.csv,80a_v1_CTC.csv
E:\CellMaxSampleData_10162014\XiaomingLaptop_Backup\03212015\00080b,TRITC-Rhoadmine Selection_000080b_re_20150131.tif,80b_v622_rgn.csv,80b_v1_CTC.csv
E:\CellMaxSampleData_10162014\XiaomingLaptop_Backup\03212015\00080c,TRITC-Rhoadmine Selection_000080c_re_20150131.tif,80c_v622_rgn.csv,80c_v1_CTC.csv
E:\LeicaClinicImages_01092015\Additional CellMapPlus Test Images\000092a_re_20150127,TRITC-Rhoadmine Selection000092a_re_20150127.tif,92a_v623_rgn.csv,92a_v1_CTC.csv
E:\LeicaClinicImages_01092015\Additional CellMapPlus Test Images\000092b_re_20150127,TRITC-Rhoadmine Selection000092b_re_20150127.tif,92b_v623_rgn.csv,92b_v1_CTC.csv
E:\LeicaClinicImages_01092015\Additional CellMapPlus Test Images\000092c_re_20150127,TRITC-Rhoadmine Selection000092c_re_20150127.tif,92c_v623_rgn.csv,92c_v1_CTC.csv
E:\LeicaClinicImages_01092015\Additional CellMapPlus Test Images\000093a_re_20150127,TRITC-Rhoadmine Selection_000093a_re_20150127.tif,93a_v623_rgn.csv,93a_v1_CTC.csv
E:\LeicaClinicImages_01092015\Additional CellMapPlus Test Images\000093b_re_20150127,TRITC-Rhoadmine Selection000093b_re_20150127.tif,93b_v623_rgn.csv,93b_v1_CTC.csv
E:\LeicaClinicImages_01092015\Additional CellMapPlus Test Images\000093c_re_20150127,TRITC-Rhoadmine Selection_000093c_re_20150127.tif,93c_v623_rgn.csv,93c_v1_CTC.csv
E:\LeicaClinicImages_01092015\Additional CellMapPlus Test Images\000094a_re_20150127,TRITC-Rhoadmine Selection000094a_re_20150127.tif,94a_v623_rgn.csv,94a_v1_CTC.csv
E:\LeicaClinicImages_01092015\Additional CellMapPlus Test Images\000094b_re_20150127,TRITC-Rhoadmine Selection000094b_re_20150127.tif,94b_v623_rgn.csv,94b_v1_CTC.csv
E:\LeicaClinicImages_01092015\Additional CellMapPlus Test Images\000094c_re_20150127,TRITC-Rhoadmine Selection000094c_re_20150127.tif,94c_v623_rgn.csv,94c_v1_CTC.csv
E:\CellMaxSampleData_10162014\XiaomingLaptop_Backup\03212015\000105a,TRITC-Rhoadmine Selection000105a_re_20150123.tif,105a_v622_rgn.csv,105a_v1_CTC.csv
E:\CellMaxSampleData_10162014\XiaomingLaptop_Backup\03212015\000105b,TRITC-Rhoadmine Selection000105b_re_20150123.tif,105b_v622_rgn.csv,105b_v1_CTC.csv
E:\CellMaxSampleData_10162014\XiaomingLaptop_Backup\03212015\000106a,TRITC-Rhoadmine Selection000106a_re_20150123.tif,106a_v622_rgn.csv,106a_v1_CTC.csv
E:\CellMaxSampleData_10162014\XiaomingLaptop_Backup\03212015\000106b,TRITC-Rhoadmine Selection_000106b_re_20150123.tif,106b_v622_rgn.csv,106b_v1_CTC.csv
E:\CellMaxSampleData_10162014\XiaomingLaptop_Backup\03212015\000138a,TRITC-Rhoadmine Selection_000138a.tif,138a_v622_rgn.csv,138a_v1_CTC.csv
E:\CellMaxSampleData_10162014\XiaomingLaptop_Backup\03212015\000138b,TRITC-Rhoadmine Selection_000138b.tif,138b_v622_rgn.csv,138b_v1_CTC.csv
E:\CellMaxSampleData_10162014\XiaomingLaptop_Backup\03212015\000138c,TRITC-Rhoadmine Selection_000138c.tif,138c_v622_rgn.csv,138c_v1_CTC.csv
E:\CellMaxSampleData_10162014\XiaomingLaptop_Backup\03212015\000149a,TRITC-Rhoadmine Selection_000149a.tif,149a_v622_rgn.csv,149a_v1_CTC.csv
E:\CellMaxSampleData_10162014\XiaomingLaptop_Backup\03212015\000149b,TRITC-Rhoadmine Selection_000149b.tif,149b_v623_rgn.csv,149b_v1_CTC.csv
E:\CellMaxSampleData_10162014\XiaomingLaptop_Backup\03212015\000149c,TRITC-Rhoadmine Selection_000149c.tif,149c_v622_rgn.csv,149c_v1_CTC.csv
E:\LeicaClinicImages_01092015\Additional CellMapPlus Test Images\000192a,TRITC-Rhoadmine Selection_000192a.tif,192a_v623_rgn.csv,192a_v1_CTC.csv
E:\LeicaClinicImages_01092015\Additional CellMapPlus Test Images\000192b,TRITC-Rhoadmine Selection_000192b.tif,192b_v623_rgn.csv,192b_v1_CTC.csv
E:\LeicaClinicImages_01092015\Additional CellMapPlus Test Images\000192c,TRITC-Rhoadmine Selection_000192c.tif,192c_v623_rgn.csv,192c_v1_CTC.csv
E:\LeicaClinicImages_01092015\Additional CellMapPlus Test Images\000192d,TRITC-Rhoadmine Selection_000192d.tif,192d_v623_rgn.csv,192d_v1_CTC.csv
E:\LeicaClinicImages_01092015\Additional CellMapPlus Test Images\000207a,TRITC-Rhoadmine Selection000207a.tif,207a_v623_rgn.csv,207a_v1_CTC.csv
E:\LeicaClinicImages_01092015\Additional CellMapPlus Test Images\000207b,TRITC-Rhoadmine Selection000207b.tif,207b_v623_rgn.csv,207b_v1_CTC.csv
E:\LeicaClinicImages_01092015\Additional CellMapPlus Test Images\000207c,TRITC-Rhoadmine Selection000207c.tif,207c_v623_rgn.csv,207c_v1_CTC.csv
E:\LeicaClinicImages_01092015\Additional CellMapPlus Test Images\000227a,TRITC-Rhoadmine Selection_000227a.tif,227a_v623_rgn.csv,227a_v1_CTC.csv
E:\LeicaClinicImages_01092015\Additional CellMapPlus Test Images\000227b,TRITC-Rhoadmine Selection_000227b.tif,227b_v623_rgn.csv,227b_v1_CTC.csv
E:\LeicaClinicImages_01092015\Additional CellMapPlus Test Images\000227c,TRITC-Rhoadmine Selection_000227c.tif,227c_v623_rgn.csv,227c_v1_CTC.csv
E:\LeicaClinicImages_01092015\Additional CellMapPlus Test Images\000227d,TRITC-Rhoadmine Selection_000227d.tif,227d_v623_rgn.csv,227d_v1_CTC.csv
E:\LeicaClinicImages_01092015\Additional CellMapPlus Test Images\000228a,TRITC-Rhoadmine Selection_000228a.tif,228a_v623_rgn.csv,228a_v1_CTC.csv
E:\LeicaClinicImages_01092015\Additional CellMapPlus Test Images\000228b,TRITC-Rhoadmine Selection_000228b.tif,228b_v623_rgn.csv,228b_v1_CTC.csv
E:\LeicaClinicImages_01092015\Additional CellMapPlus Test Images\000228d,TRITC-Rhoadmine Selection_000228d.tif,228d_v623_rgn.csv,228d_v1_CTC.csv
E:\LeicaClinicImages_01092015\20150321_000284_000287\000287a,TRITC-Rhoadmine Selection_000287a.tif,000287a_Ben_rgn.csv,287a_v1_CTC.csv
E:\LeicaClinicImages_01092015\20150321_000284_000287\000287b,TRITC-Rhoadmine Selection_000287b.tif,000287b_Ben_rgn.csv,287b_v1_CTC.csv
E:\LeicaClinicImages_01092015\20150324_000288_000292\000288a,TRITC-Rhoadmine Selection_000288a.tif,000288a_Ben_rgn.rgn.csv,288a_v1_CTC.csv
E:\LeicaClinicImages_01092015\20150324_000288_000292\000288b,TRITC-Rhoadmine Selection_000288b.tif,000288b_Ben_rgn.rgn.csv,288b_v1_CTC.csv
E:\LeicaClinicImages_01092015\20150324_000288_000292\000289b,TRITC-Rhoadmine Selection_000289b.tif,000289b_Ben_rgn.csv,289b_v1_CTC.csv
E:\LeicaClinicImages_01092015\20150324_000288_000292\000290a,TRITC-Rhoadmine Selection_000290a.tif,000290a_Ben_rgn.csv,290a_v1_CTC.csv
E:\LeicaClinicImages_01092015\20150324_000288_000292\000290b,TRITC-Rhoadmine Selection_000290b.tif,000290b_Ben_rgn.csv,290b_v1_CTC.csv
E:\LeicaClinicImages_01092015\20150326_000304_000308\000304a,TRITC-Rhoadmine Selection_000304a.tif,000304a_Ben_rgn.csv,304a_v1_CTC.csv
E:\LeicaClinicImages_01092015\20150326_000304_000308\000304b,TRITC-Rhoadmine Selection_000304b.tif,000304b_Ben_rgn.csv,304b_v1_CTC.csv
E:\LeicaClinicImages_01092015\20150326_000304_000308\000305a,TRITC-Rhoadmine Selection_000305a.tif,000305a_Ben_rgn.csv,305a_v1_CTC.csv
E:\LeicaClinicImages_01092015\20150326_000304_000308\000305b,TRITC-Rhoadmine Selection_000305b.tif,000305b_Ben_rgn.csv,305b_v1_CTC.csv
E:\LeicaClinicImages_01092015\20150326_000309_000312\000310a,TRITC-Rhoadmine Selection_000310a.tif,000310a_Ben_rgn.csv,310a_v1_CTC.csv
E:\LeicaClinicImages_01092015\20150326_000309_000312\000310b,TRITC-Rhoadmine Selection_000310b.tif,000310b_Ben_rgn.rgn.csv,310b_v1_CTC.csv
E:\LeicaClinicImages_01092015\20150326_000309_000312\000311b,TRITC-Rhoadmine Selection_000311b.tif,000311b_Ben_rgn.csv,311b_v1_CTC.csv
E:\LeicaClinicImages_01092015\20150326_000309_000312\000312a,TRITC-Rhoadmine Selection_000312a.tif,000312a_Ben_rgn.csv,312a_v1_CTC.csv
E:\LeicaClinicImages_01092015\20150327_000313\000313a,TRITC-Rhoadmine Selection_000313a.tif,000313a_Ben_rgn.csv,313a_v1_CTC.csv
E:\LeicaClinicImages_01092015\20150327_000313\000313b,TRITC-Rhoadmine Selection_000313b.tif,000313b_Ben_rgn.csv,313b_v1_CTC.csv
E:\LeicaClinicImages_01092015\000314a,TRITC-Rhoadmine Selection_000314a.tif,000314a_Ben_rgn.csv,314a_v1_CTC.csv
E:\LeicaClinicImages_01092015\000314b,TRITC-Rhoadmine Selection_000314b.tif,000314b_Ben_rgn.csv,314b_v1_CTC.csv
E:\LeicaClinicImages_01092015\000316a,TRITC-Rhoadmine Selection_000316a.tif,000316a_Ben_rgn.csv,316a_v1_CTC.csv
E:\LeicaClinicImages_01092015\000316b,TRITC-Rhoadmine Selection_000316b.tif,000316b_Ben_rgn.csv,316b_v1_CTC.csv
E:\LeicaClinicImages_01092015\000321a,TRITC-Rhoadmine Selection_000321a.tif,000321a_Ben_rgn.rgn.csv,321a_v1_CTC.csv
E:\LeicaClinicImages_01092015\000341a,TRITC-Rhoadmine Selection_000341a.tif,000341a_Ben.rgn.csv,341a_v1_CTC.csv
E:\LeicaClinicImages_01092015\000341b,TRITC-Rhoadmine Selection_000341b.tif,000341b_Ben.csv,341b_v1_CTC.csv
E:\New samples 6-1-2015\000363a,TRITC-Rhoadmine Selection_000363a.tif,000363a_Ben_rgn.csv,363a_v1_CTC.csv
E:\New samples 6-1-2015\000363b,TRITC-Rhoadmine Selection_000363b.tif,000363b_Ben_rgn.csv,363b_v1_CTC.csv
E:\New samples 6-1-2015\000368a,TRITC-Rhoadmine Selection_000368a.tif,000368a_Ben_rgn.csv,368a_v1_CTC.csv
E:\New samples 6-1-2015\000368b,TRITC-Rhoadmine Selection_000368b.tif,000368b_Ben_rgn.csv,368b_v1_CTC.csv
E:\New samples 6-1-2015\000377a,TRITC-Rhoadmine Selection_000377a.tif,000377a_Ben_rgn.csv,377a_v1_CTC.csv
E:\New samples 6-1-2015\000377b,TRITC-Rhoadmine Selection_000377b.tif,000377b_Ben_rgn.csv,377b_v1_CTC.csv
E:\New samples 6-1-2015\000400a,TRITC-Rhoadmine Selection_000400a.tif,000400a_Ben_rgn.csv,400a_v1_CTC.csv
E:\New samples 6-1-2015\000415a,TRITC-Rhoadmine Selection_000415a.tif,000415a_Ben_rgn.rgn.csv,415a_v1_CTC.csv
E:\New samples 6-1-2015\000415b,TRITC-Rhoadmine Selection_000415b.tif,000415b_Ben_rgn.rgn.csv,415b_v1_CTC.csv
E:\New samples 6-1-2015\000416a,TRITC-Rhoadmine Selection_000416a.tif,000416a_Ben_rgn.rgn.csv,416a_v1_CTC.csv
E:\New samples 6-1-2015\000416b,TRITC-Rhoadmine Selection_000416b.tif,000416b_Ben_rgn.csv,416b_v1_CTC.csv
E:\New samples 6-1-2015\000419a,TRITC-Rhoadmine Selection_000419a.tif,000419a_Ben_rgn.rgn.csv,419a_v1_CTC.csv
E:\New samples 6-1-2015\000420a,TRITC-Rhoadmine Selection_000420a.tif,000420a_Ben_rgn.rgn.csv,420a_v1_CTC.csv
E:\New samples 6-1-2015\000420b,TRITC-Rhoadmine Selection_000420b.tif,000420b_Ben_rgn.rgn.csv,420b_v1_CTC.csv
E:\New samples 6-1-2015\000424a,TRITC-Rhoadmine Selection_000424a.tif,000424a_Ben.rgn.csv,424a_v1_CTC.csv
E:\New samples 6-1-2015\000424b,TRITC-Rhoadmine Selection_000424b.tif,000424b_Ben.rgn.csv,424b_v1_CTC.csv
E:\New samples 6-1-2015\000425a,TRITC-Rhoadmine Selection_000425a.tif,000425a_Ben.rgn.csv,425a_v1_CTC.csv
E:\New samples 6-1-2015\000425b,TRITC-Rhoadmine Selection_000425b.tif,000425b_Ben.csv,425b_v1_CTC.csv
E:\New samples 6-1-2015\000426a,TRITC-Rhoadmine Selection_000426a.tif,000426a_Ben.rgn.csv,426a_v1_CTC.csv
E:\New samples 6-1-2015\000426c,TRITC-Rhoadmine Selection_000426c.tif,000426c_Ben.csv,426c_v1_CTC.csv
E:\New samples 6-1-2015\000430a,TRITC-Rhoadmine Selection_000430a.tif,000430a_Ben.csv,430a_v1_CTC.csv
E:\New samples 6-1-2015\000430c,TRITC-Rhoadmine Selection_000430c.tif,000430c_Ben.csv,430c_v1_CTC.csv
E:\New samples 6-1-2015\000431a,TRITC-Rhoadmine Selection_000431a.tif,000431a_Ben.csv,431a_v1_CTC.csv
E:\New samples 6-1-2015\000433a,TRITC-Rhoadmine Selection_000433a.tif,000433a_Ben.rgn.csv,433a_v1_CTC.csv
